Reproduciple Research Project 1
…
The second option is to keep NAs as we calculate the sum and remove NAs during the calculation of the mean and median. These functions do not include the 8 days with missing data, thus the total steps is divided by 53 days.

I chose option 1, as it is possible when exploring data that some variables will have partial information. I choose to included all days in calculating the mean and median, regrdless of if they were complete cases or not.

Summary of total number of steps taken per day:

library(dplyr)
activity <- group_by(activity, date)
totalsteps <- summarise(activity, sum(steps, na.rm = TRUE))
names(totalsteps) <- c("day", "total.steps")
totalsteps

## # A tibble: 61 x 2
##    day        total.steps
##    <date>           <int>
##  1 2012-10-01           0
##  2 2012-10-02         126
##  3 2012-10-03       11352
##  4 2012-10-04       12116
##  5 2012-10-05       13294
##  6 2012-10-06       15420
##  7 2012-10-07       11015
##  8 2012-10-08           0
##  9 2012-10-09       12811
## 10 2012-10-10        9900
## # â€¦ with 51 more rows
…
